[
    
    { "page": 1,
  "per_page": 3,
  "total": 12,
  "total_pages": 4,
  "author":{
    "first_name": "Ms R",
    "last_name":"Reddy"
  },
  "data": [
    {
      "id": 1,
      "first_name": "George",
      "last_name": "Bluth",
      "avatar": "https://cdn.pixabay.com/photo/2016/10/02/22/17/red-t-shirt-1710578_1280.jpg",
      "images": [
        {
          "id" : 122,
          "imageName": "377cjsahdh388.jpeg"
        },
        {
          "id" : 152,
          "imageName": "1743fsahdh388.jpeg"
        }
      ]
      
    },
    {
      "id": 2,
      "first_name": "Janet",
      "last_name": "Weaver",
      "avatar": "https://cdn.pixabay.com/photo/2016/10/02/22/17/red-t-shirt-1710578_1280.jpg",
      "images": [
        {
          "id" : 122,
          "imageName": "377cjsahdh388.jpeg"
        },
        {
          "id" : 152,
          "imageName": "1743fsahdh388.jpeg"
        }
      ]
    },
    {
      "id": 3,
      "first_name": "Emma",
      "last_name": "Wong",
      "avatar": "https://cdn.pixabay.com/photo/2016/10/02/22/17/red-t-shirt-1710578_1280.jpg",
      "images": [
        {
          "id" : 122,
          "imageName": "377cjsahdh388.jpeg"
        },
        {
          "id" : 152,
          "imageName": "1743fsahdh388.jpeg"
        }
      ]
    }
  ]
},
{ "page": 2,
"per_page": 3,
"total": 12,
"total_pages": 4,
"author":{
  "first_name": "Ms R",
  "last_name":"Reddy"
},
"data": [
  {
    "id": 1,
    "first_name": "George",
    "last_name": "Bluth",
    "avatar": "https://cdn.pixabay.com/photo/2016/10/02/22/17/red-t-shirt-1710578_1280.jpg",
    "images": [
      {
        "id" : 122,
        "imageName": "377cjsahdh388.jpeg"
      },
      {
        "id" : 152,
        "imageName": "1743fsahdh388.jpeg"
      }
    ]

  },
  {
    "id": 2,
    "first_name": "Janet",
    "last_name": "Weaver",
    "avatar": "https://s3.amazonaws.com/uifaces/faces/twitter/josephstein/128.jpg",
    "images": [
      {
        "id" : 122,
        "imageName": "377cjsahdh388.jpeg"
      },
      {
        "id" : 152,
        "imageName": "1743fsahdh388.jpeg"
      }
    ]
  },
  {
    "id": 3,
    "first_name": "Emma",
    "last_name": "Wong",
    "avatar": "https://s3.amazonaws.com/uifaces/faces/twitter/olegpogodaev/128.jpg",
    "images": [
      {
        "id" : 122,
        "imageName": "377cjsahdh388.jpeg"
      },
      {
        "id" : 152,
        "imageName": "1743fsahdh388.jpeg"
      }
    ]
  }
]
},  { "page": 3,
"per_page": 3,
"total": 12,
"total_pages": 4,
"author":{
  "first_name": "Ms R",
  "last_name":"Reddy"
},
"data": [
  {
    "id": 1,
    "first_name": "George",
    "last_name": "Bluth",
    "avatar": "https://cdn.pixabay.com/photo/2016/10/02/22/17/red-t-shirt-1710578_1280.jpg",
    "images": [
      {
        "id" : 122,
        "imageName": "377cjsahdh388.jpeg"
      },
      {
        "id" : 152,
        "imageName": "1743fsahdh388.jpeg"
      }
    ]

  },
  {
    "id": 2,
    "first_name": "Janet",
    "last_name": "Weaver",
    "avatar": "https://s3.amazonaws.com/uifaces/faces/twitter/josephstein/128.jpg",
    "images": [
      {
        "id" : 122,
        "imageName": "377cjsahdh388.jpeg"
      },
      {
        "id" : 152,
        "imageName": "1743fsahdh388.jpeg"
      }
    ]
  },
  {
    "id": 3,
    "first_name": "Emma",
    "last_name": "Wong",
    "avatar": "https://s3.amazonaws.com/uifaces/faces/twitter/olegpogodaev/128.jpg",
    "images": [
      {
        "id" : 122,
        "imageName": "377cjsahdh388.jpeg"
      },
      {
        "id" : 152,
        "imageName": "1743fsahdh388.jpeg"
      }
    ]
  }
]
}


]